      0.002499939   6.60000   0.06885
      0.007499817   6.60000   0.07337
      0.012499694   6.60000   0.07220
      0.017499572   6.60000   0.07068
      0.022499450   6.70000   0.06530
      0.027499327   6.70000   0.07217
      0.032499205   6.70000   0.06602
      0.037499083   6.70000   0.07336
      0.042498960   6.70000   0.07049
      0.047498838   6.70000   0.07467
      0.052498716   6.70000   0.06873
      0.057498593   6.70000   0.07073
      0.062498471   6.70000   0.06449
      0.067498349   6.80000   0.06742
      0.072498226   6.70000   0.07311
      0.077498104   6.70000   0.07114
      0.082497982   6.80000   0.06952
      0.087497859   6.70000   0.07176
      0.092497737   6.70000   0.06913
      0.097497615   6.80000   0.07493
      0.102497492   6.80000   0.06711
      0.107497370   6.80000   0.07045
      0.112497248   6.80000   0.06807
      0.117497125   6.80000   0.07257
      0.122497003   6.80000   0.07038
      0.127496881   6.80000   0.07032
      0.132496758   6.80000   0.07365
      0.137496636   6.90000   0.06815
      0.142496514   6.80000   0.07211
      0.147496391   6.90000   0.06983
      0.152496269   6.90000   0.06864
      0.157496147   6.90000   0.07771
      0.162496024   6.90000   0.07936
      0.167495902   7.00000   0.07226
      0.172495780   6.90000   0.07502
      0.177495657   6.90000   0.07076
      0.182495535   6.90000   0.06876
      0.187495413   6.90000   0.06810
      0.192495290   6.90000   0.07126
      0.197495168   7.00000   0.07129
      0.202495046   6.90000   0.07692
      0.207494923   6.90000   0.07079
      0.212494801   6.90000   0.07328
      0.217494679   6.90000   0.06815
      0.222494556   7.00000   0.07464
      0.227494434   7.00000   0.07342
      0.232494312   6.91000   0.07839
      0.237494189   6.94650   0.07782
      0.242494067   7.00000   0.07840
      0.247493945   7.00000   0.06887
      0.252493822   7.00000   0.07422
      0.257493700   7.00000   0.07495
      0.262493578   7.00000   0.07100
      0.267493455   7.00000   0.07228
      0.272493333   7.00000   0.07353
      0.277493211   7.00000   0.07200
      0.282493089   7.00000   0.07021
      0.287492966   7.00000   0.07248
      0.292492844   7.00000   0.07440
      0.297492722   7.00000   0.07711
      0.302492599   7.00000   0.07582
      0.307492477   7.00000   0.06852
      0.312492355   7.00000   0.07264
      0.317492232   7.00000   0.07875
      0.322492110   7.00000   0.06986
      0.327491988   6.90000   0.06789
      0.332491865   7.00000   0.07912
      0.337491743   6.92500   0.06605
      0.342491621   6.96000   0.07294
      0.347491498   6.90000   0.07055
      0.352491376   6.90000   0.07054
      0.357491254   6.90000   0.07838
      0.362491131   6.90000   0.07274
      0.367491009   6.89500   0.07115
      0.372490887   6.80000   0.07050
      0.377490764   6.90000   0.07235
      0.382490642   6.80000   0.07022
      0.387490520   6.85000   0.07207
      0.392490397   6.80000   0.07166
      0.397490275   6.80000   0.06488
      0.402490153   6.80000   0.07167
      0.407490030   6.80000   0.07142
      0.412489908   6.77500   0.06790
      0.417489786   6.80000   0.07300
      0.422489663   6.70000   0.06849
      0.427489541   6.70000   0.07362
      0.432489419   6.70000   0.07752
      0.437489296   6.70000   0.06696
      0.442489174   6.70000   0.07102
      0.447489052   6.70000   0.06858
      0.452488929   6.70000   0.06975
      0.457488807   6.77500   0.07585
      0.462488685   6.70000   0.06268
      0.467488562   6.80000   0.06889
      0.472488440   6.70000   0.06935
      0.477488318   6.70000   0.07196
      0.482488195   6.70000   0.06693
      0.487488073   6.70000   0.06864
      0.492487951   6.70000   0.07069
      0.497487828   6.70000   0.06797
      0.502487706   6.70000   0.06766
      0.507487584   6.60000   0.06814
      0.512487461   6.60000   0.07543
      0.517487339   6.60000   0.06917
      0.522487217   6.50000   0.06601
      0.527487094   6.50000   0.06800
      0.532486972   6.40000   0.07358
      0.537486850   6.40000   0.06451
      0.542486728   6.40000   0.06893
      0.547486605   6.30000   0.06578
      0.552486483   6.30000   0.05995
      0.557486361   6.20000   0.06427
      0.562486238   6.20000   0.06958
      0.567486116   6.10000   0.05657
      0.572485994   6.10000   0.06017
      0.577485871   6.10000   0.06370
      0.582485749   6.10000   0.05886
      0.587485627   6.10000   0.06222
      0.592485504   6.10000   0.06179
      0.597485382   6.10000   0.06063
      0.602485260   6.10000   0.06221
      0.607485137   6.10000   0.06086
      0.612485015   6.05000   0.05787
      0.617484893   6.10000   0.06157
      0.622484770   6.00000   0.06105
      0.627484648   6.10000   0.05959
      0.632484526   6.10000   0.06062
      0.637484403   6.10000   0.06000
      0.642484281   6.10000   0.05781
      0.647484159   6.10000   0.06528
      0.652484036   6.10000   0.06414
      0.657483914   6.10000   0.06211
      0.662483792   6.10000   0.05842
      0.667483669   6.10000   0.05978
      0.672483547   6.10000   0.06227
      0.677483425   6.10000   0.06077
      0.682483302   6.10000   0.05901
      0.687483180   6.10000   0.06284
      0.692483058   6.10000   0.06140
      0.697482935   6.10000   0.06244
      0.702482813   6.10000   0.06194
      0.707482691   6.10000   0.06830
      0.712482568   6.10000   0.06159
      0.717482446   6.10000   0.06399
      0.722482324   6.10000   0.06737
      0.727482201   6.10000   0.06280
      0.732482079   6.10000   0.06047
      0.737481957   6.11100   0.05994
      0.742481834   6.20000   0.06039
      0.747481712   6.20000   0.06618
      0.752481590   6.10000   0.06456
      0.757481467   6.20000   0.06491
      0.762481345   6.20000   0.06582
      0.767481223   6.20000   0.06319
      0.772481100   6.20000   0.06309
      0.777480978   6.20000   0.06981
      0.782480856   6.20000   0.06356
      0.787480733   6.30000   0.06139
      0.792480611   6.30000   0.06838
      0.797480489   6.20000   0.06215
      0.802480366   6.30000   0.06250
      0.807480244   6.30000   0.06147
      0.812480122   6.30000   0.06637
      0.817480000   6.30000   0.06526
      0.822479877   6.20000   0.06732
      0.827479755   6.30000   0.06345
      0.832479633   6.30000   0.06367
      0.837479510   6.30000   0.06741
      0.842479388   6.30000   0.06039
      0.847479266   6.30000   0.06308
      0.852479143   6.30000   0.06663
      0.857479021   6.40000   0.06511
      0.862478899   6.40000   0.06785
      0.867478776   6.40000   0.06495
      0.872478654   6.40000   0.06937
      0.877478532   6.40000   0.06979
      0.882478409   6.40000   0.07268
      0.887478287   6.40000   0.06533
      0.892478165   6.40000   0.06870
      0.897478042   6.50000   0.06825
      0.902477920   6.40000   0.06553
      0.907477798   6.40000   0.07126
      0.912477675   6.45500   0.06253
      0.917477553   6.40000   0.06877
      0.922477431   6.40000   0.06843
      0.927477308   6.50000   0.07104
      0.932477186   6.50000   0.06564
      0.937477064   6.45000   0.06714
      0.942476941   6.50000   0.06982
      0.947476819   6.50000   0.06927
      0.952476697   6.50000   0.07186
      0.957476574   6.50000   0.06718
      0.962476452   6.60000   0.07508
      0.967476330   6.55000   0.06780
      0.972476207   6.50000   0.06778
      0.977476085   6.60000   0.06621
      0.982475963   6.60000   0.06438
      0.987475840   6.60000   0.07049
      0.992475718   6.60000   0.07195
      0.997475596   6.60000   0.06499
